{
    "appUrl": "https://165.227.137.250/",
    "email": "felix.smith@gmail.com",
    "password": "qwerty",
    "firstName": "Felix",
    "lastName": "Smith",
    "wrongEmail": "!@#$%^&*@gmail",
    "wrongPassword": "1",
    "listName": "New list",
    "newListName": "New Name",
    "listNameForDelete": "Absolutely new list",
    "incorrectCredentialsErrorText":"The email or password is incorrect",
    "registrationSuccessText": "You have successfully registered! Now you need to login",
    "editListInfoSuccessText": "The list was updated!",
    "emailForDelete": "leonardo.da.vinci1452@gmail.com",
    "passwordForDelete": "111111",
    "firstNameForDelete": "Lenardo",
    "lastNameForDelete": "da Vinci",
    "dateOfBirth": "15.04.1452"
}

